{
	"info": {
		"_postman_id": "db3ce054-67a5-4adc-995f-ec76c7c19426",
		"name": "Kubbo Order Microservice",
		"schema": "https://schema.getpostman.com/json/collection/v2.1.0/collection.json"
	},
	"item": [
		{
			"name": "Get Order's List",
			"protocolProfileBehavior": {
				"disableBodyPruning": true
			},
			"request": {
				"method": "GET",
				"header": [],
				"body": {
					"mode": "raw",
					"raw": "",
					"options": {
						"raw": {}
					}
				},
				"url": {
					"raw": "localhost:8090/api/orders/list",
					"host": [
						"localhost"
					],
					"port": "8090",
					"path": [
						"api",
						"orders",
						"list"
					]
				},
				"description": "Endpoint for get a simple product's list"
			},
			"response": []
		},
		{
			"name": "Get Paginated Order's List",
			"request": {
				"method": "GET",
				"header": [],
				"url": {
					"raw": "localhost:8090/api/orders/paginated-list?page=0&size=1",
					"host": [
						"localhost"
					],
					"port": "8090",
					"path": [
						"api",
						"orders",
						"paginated-list"
					],
					"query": [
						{
							"key": "page",
							"value": "0"
						},
						{
							"key": "size",
							"value": "1"
						}
					]
				},
				"description": "This endpoint allow get a paginate product's list"
			},
			"response": []
		},
		{
			"name": "Create Order",
			"request": {
				"method": "POST",
				"header": [],
				"body": {
					"mode": "raw",
					"raw": "{\r\n    \"orderDetail\": [\r\n        {\r\n            \"product\": {\r\n                \"id\": 1,\r\n                \"sku\": \"a1\",\r\n                \"name\": \"zapatos nike\",\r\n                \"description\": \"nuevo par de zapatos deportivos nike\",\r\n                \"createdAt\": \"2020-06-21T12:57:37.000+00:00\",\r\n                \"enabled\": true,\r\n                \"deleted\": false\r\n            },\r\n            \"quantity\": 2\r\n        }\r\n    ],\r\n    \"warehouse\": {\r\n        \"id\": 1,\r\n        \"name\": \"almacenas juan carlos I\",\r\n        \"warehouseIdentifier\": \"z21\",\r\n        \"address\": \"Avenida Juan Carlos I\",\r\n        \"createdAt\": \"2020-06-21T12:57:40.000+00:00\",\r\n        \"deleted\": false\r\n    },\r\n    \"customer\": {\r\n        \"id\": 1,\r\n        \"name\": \"Rosa\",\r\n        \"surname\": \"Medina\",\r\n        \"dni\": \"Y8521479A\",\r\n        \"email\": \"rosangela.ing10@gmail.com\",\r\n        \"phone\": \"658798125\",\r\n        \"birthdate\": \"1992-06-10T12:57:37.000+00:00\",\r\n        \"address\": \"Lord Cochrane 302\"\r\n    },\r\n    \"createdAt\": \"2020-06-21T12:57:40.000+00:00\",\r\n    \"shippingDate\": null,\r\n    \"deliveryDate\": null,\r\n    \"deleted\": false\r\n}",
					"options": {
						"raw": {
							"language": "json"
						}
					}
				},
				"url": {
					"raw": "localhost:8090/api/orders/store",
					"host": [
						"localhost"
					],
					"port": "8090",
					"path": [
						"api",
						"orders",
						"store"
					]
				},
				"description": "Endpoint for create a new product"
			},
			"response": []
		},
		{
			"name": "Get Order",
			"protocolProfileBehavior": {
				"disableBodyPruning": true
			},
			"request": {
				"method": "GET",
				"header": [],
				"body": {
					"mode": "raw",
					"raw": "",
					"options": {
						"raw": {
							"language": "json"
						}
					}
				},
				"url": {
					"raw": "localhost:8090/api/orders/get/1",
					"host": [
						"localhost"
					],
					"port": "8090",
					"path": [
						"api",
						"orders",
						"get",
						"1"
					]
				},
				"description": "Endpoint for search a product by id"
			},
			"response": []
		},
		{
			"name": "Delete Order",
			"request": {
				"method": "DELETE",
				"header": [],
				"url": {
					"raw": "localhost:8090/api/orders/delete/3",
					"host": [
						"localhost"
					],
					"port": "8090",
					"path": [
						"api",
						"orders",
						"delete",
						"3"
					]
				},
				"description": "Endpoint for logically delete a product"
			},
			"response": []
		},
		{
			"name": "Get Order Status List",
			"request": {
				"method": "GET",
				"header": [],
				"url": {
					"raw": "localhost:8090/api/orders/get-status-list",
					"host": [
						"localhost"
					],
					"port": "8090",
					"path": [
						"api",
						"orders",
						"get-status-list"
					]
				},
				"description": "This endpoint allow get a paginate product's list"
			},
			"response": []
		},
		{
			"name": "Get Warehouses List",
			"request": {
				"method": "GET",
				"header": [],
				"url": {
					"raw": "localhost:8090/api/orders/get-warehouses-list",
					"host": [
						"localhost"
					],
					"port": "8090",
					"path": [
						"api",
						"orders",
						"get-warehouses-list"
					]
				},
				"description": "This endpoint allow get a paginate product's list"
			},
			"response": []
		},
		{
			"name": "Get Products by Warehouse",
			"request": {
				"method": "GET",
				"header": [],
				"url": {
					"raw": "localhost:8090/api/orders/get-products-by-warehousea/1",
					"host": [
						"localhost"
					],
					"port": "8090",
					"path": [
						"api",
						"orders",
						"get-products-by-warehousea",
						"1"
					]
				},
				"description": "This endpoint allow get a paginate product's list"
			},
			"response": []
		},
		{
			"name": "Get Customers List",
			"request": {
				"method": "GET",
				"header": [],
				"url": {
					"raw": "localhost:8090/api/orders/get-customers-list",
					"host": [
						"localhost"
					],
					"port": "8090",
					"path": [
						"api",
						"orders",
						"get-customers-list"
					]
				},
				"description": "This endpoint allow get a paginate product's list"
			},
			"response": []
		},
		{
			"name": "Get Stock by Warehouse",
			"request": {
				"method": "GET",
				"header": [],
				"url": {
					"raw": "localhost:8090/api/orders/get-stock-from-warehouse-for-product/1/1",
					"host": [
						"localhost"
					],
					"port": "8090",
					"path": [
						"api",
						"orders",
						"get-stock-from-warehouse-for-product",
						"1",
						"1"
					]
				},
				"description": "This endpoint allow get a paginate product's list"
			},
			"response": []
		},
		{
			"name": "Update Order Status",
			"request": {
				"method": "PUT",
				"header": [],
				"url": {
					"raw": "localhost:8090/api/orders/status-update/6/2",
					"host": [
						"localhost"
					],
					"port": "8090",
					"path": [
						"api",
						"orders",
						"status-update",
						"6",
						"2"
					]
				},
				"description": "Endpoint for create a new product"
			},
			"response": []
		}
	],
	"protocolProfileBehavior": {}
}