{
	"info": {
		"_postman_id": "8f2ba757-e3c1-4cd2-bbb8-a25a505f0206",
		"name": "Kubbo Customer Microservice",
		"schema": "https://schema.getpostman.com/json/collection/v2.1.0/collection.json"
	},
	"item": [
		{
			"name": "Get Customers List",
			"request": {
				"method": "GET",
				"header": [],
				"url": {
					"raw": "localhost:8090/api/customers/list",
					"host": [
						"localhost"
					],
					"port": "8090",
					"path": [
						"api",
						"customers",
						"list"
					]
				},
				"description": "Endpoint for get a simple product's list"
			},
			"response": []
		},
		{
			"name": "Get Paginated Customers List",
			"request": {
				"method": "GET",
				"header": [],
				"url": {
					"raw": "localhost:8090/api/customers/paginated-list?page=0&size=1",
					"host": [
						"localhost"
					],
					"port": "8090",
					"path": [
						"api",
						"customers",
						"paginated-list"
					],
					"query": [
						{
							"key": "page",
							"value": "0"
						},
						{
							"key": "size",
							"value": "1"
						}
					]
				},
				"description": "This endpoint allow get a paginate product's list"
			},
			"response": []
		},
		{
			"name": "Create Customer",
			"request": {
				"method": "POST",
				"header": [],
				"body": {
					"mode": "raw",
					"raw": "{\r\n    \"name\": \"Rosa\",\r\n    \"surname\": \"Medina\",\r\n    \"dni\": \"Y8521479A\",\r\n    \"email\": \"rosangela.ing10@gmail.com\",\r\n    \"phone\": \"658798125\",\r\n    \"birthdate\": \"1992-06-10T12:57:37.000+00:00\",\r\n    \"address\": \"Lord Cochrane 302\"\r\n}",
					"options": {
						"raw": {
							"language": "json"
						}
					}
				},
				"url": {
					"raw": "localhost:8090/api/customers/store",
					"host": [
						"localhost"
					],
					"port": "8090",
					"path": [
						"api",
						"customers",
						"store"
					]
				},
				"description": "Endpoint for create a new product"
			},
			"response": []
		},
		{
			"name": "Get Customer",
			"protocolProfileBehavior": {
				"disableBodyPruning": true
			},
			"request": {
				"method": "GET",
				"header": [],
				"body": {
					"mode": "raw",
					"raw": "",
					"options": {
						"raw": {
							"language": "json"
						}
					}
				},
				"url": {
					"raw": "localhost:8090/api/customers/get/1",
					"host": [
						"localhost"
					],
					"port": "8090",
					"path": [
						"api",
						"customers",
						"get",
						"1"
					]
				},
				"description": "Endpoint for search a product by id"
			},
			"response": []
		},
		{
			"name": "Update Customer",
			"request": {
				"method": "PUT",
				"header": [],
				"body": {
					"mode": "raw",
					"raw": "{\r\n    \"id\": 1,\r\n    \"name\": \"Rosa Angela\",\r\n    \"surname\": \"Medina Colmenares\",\r\n    \"dni\": \"Y8521479A\",\r\n    \"email\": \"rosangela.ing10@gmail.com\",\r\n    \"birthdate\": \"1992-06-10T12:57:37.000+00:00\",\r\n    \"phone\": \"658798125\",\r\n    \"address\": \"Lord Cochrane 302\",\r\n    \"createdAt\": \"2020-06-22T20:53:53.676+00:00\",\r\n    \"deleted\": false\r\n}",
					"options": {
						"raw": {
							"language": "json"
						}
					}
				},
				"url": {
					"raw": "localhost:8090/api/customers/update/1",
					"host": [
						"localhost"
					],
					"port": "8090",
					"path": [
						"api",
						"customers",
						"update",
						"1"
					]
				},
				"description": "Endpoint for update product's data"
			},
			"response": []
		},
		{
			"name": "Delete Customer",
			"request": {
				"method": "DELETE",
				"header": [],
				"url": {
					"raw": "localhost:8090/api/customers/delete/1",
					"host": [
						"localhost"
					],
					"port": "8090",
					"path": [
						"api",
						"customers",
						"delete",
						"1"
					]
				},
				"description": "Endpoint for logically delete a product"
			},
			"response": []
		}
	],
	"protocolProfileBehavior": {}
}